{
	"input_test": {
		"page": null,
		"per_page": 2
	},
	"expected_result": {
		"page": 1,
		"per_page": 2,
		"total": 12,
		"total_pages": 6,
		"data": [
			{
				"id": 1,
				"email": "george.bluth@reqres.in",
				"first_name": "George",
				"last_name": "Bluth",
				"avatar": "https://reqres.in/img/faces/1-image.jpg"
			},
			{
				"id": 2,
				"email": "janet.weaver@reqres.in",
				"first_name": "Janet",
				"last_name": "Weaver",
				"avatar": "https://reqres.in/img/faces/2-image.jpg"
			}
		]
	}
}